[
    {
         "fullName": "Dhimas Wahyu",
             "date_of_birth": "2000-12-11",
             "email": "dhimas@gmail.com",
             "user_game_id": 1
    },
    {
        "fullName": "Sofia Khalisa",
        "date_of_birth": "2000-12-11",
        "email": "sofia@gmail.com",
        "user_game_id": 2
    },
    {
        "fullName": "Ravelino",
        "date_of_birth": "2000-12-11",
        "email": "ravel@gmail.com",
        "user_game_id": 3
    },
    {
        "fullName": "Alfina Hidayah",
        "date_of_birth": "2000-12-11",
        "email": "pina@gmail.com",
        "user_game_id": 4
    },
    {
        "fullName": "Dhea Anggita",
        "date_of_birth": "2000-12-11",
        "email": "dhea@gmail.com",
        "user_game_id": 5
    }

]